…
## Problem 2

This problem uses data from the Behavioral Risk Factors Surveillance
System for Selected Metropolitan Area Risk Trends (SMART) for 2002-2010.

First we call in the dataset.

``` r
library (p8105.datasets)
brfss_smart2010 
```

    ## # A tibble: 134,203 × 23
    ##     Year Locationabbr Locationdesc     Class Topic Question Response Sample_Size
    ##    <int> <chr>        <chr>            <chr> <chr> <chr>    <chr>          <int>
    ##  1  2010 AL           AL - Jefferson … Heal… Over… How is … Excelle…          94
    ##  2  2010 AL           AL - Jefferson … Heal… Over… How is … Very go…         148
    ##  3  2010 AL           AL - Jefferson … Heal… Over… How is … Good             208
    ##  4  2010 AL           AL - Jefferson … Heal… Over… How is … Fair             107
    ##  5  2010 AL           AL - Jefferson … Heal… Over… How is … Poor              45
    ##  6  2010 AL           AL - Jefferson … Heal… Fair… Health … Good or…         450
    ##  7  2010 AL           AL - Jefferson … Heal… Fair… Health … Fair or…         152
    ##  8  2010 AL           AL - Jefferson … Heal… Heal… Do you … Yes              524
    ##  9  2010 AL           AL - Jefferson … Heal… Heal… Do you … No                77
    ## 10  2010 AL           AL - Jefferson … Heal… Unde… Adults … Yes              316
    ## # ℹ 134,193 more rows
    ## # ℹ 15 more variables: Data_value <dbl>, Confidence_limit_Low <dbl>,
    ## #   Confidence_limit_High <dbl>, Display_order <int>, Data_value_unit <chr>,
    ## #   Data_value_type <chr>, Data_Value_Footnote_Symbol <chr>,
    ## #   Data_Value_Footnote <chr>, DataSource <chr>, ClassId <chr>, TopicId <chr>,
    ## #   LocationID <chr>, QuestionID <chr>, RESPID <chr>, GeoLocation <chr>
…
